IS415-GAA - Take-home Exercise 2: Spatio-temporal Analysis of COVID-19 Vaccination Trends at the Sub-district Level, DKI Jakarta
…
6.1 Compute Monthly Vaccination Rate

The formula for Vaccination Rate will be: ((target - people not yet vaccinated) / target ) * 100

vaccination_rate <- jkt_vaccination %>%
  inner_join(jkt_village, by=c("Sub_District" = "Sub_District")) %>%
  group_by(Sub_District, Date) %>%
  dplyr::summarise(`vaccination_rate` = (Target-Not_Yet_Vaccinated)/Target) %>% ungroup() %>% pivot_wider(names_from = Date,
              values_from = vaccination_rate)

Showing the Output of Vaccination rate across months at a sub-district level

vaccination_rate

# A tibble: 261 × 13
   Sub_District  2021-…¹ 2021-…² 2021-…³ 2021-…⁴ 2021-…⁵ 2021-…⁶ 2022-…⁷ 2022-…⁸
   <chr>           <dbl>   <dbl>   <dbl>   <dbl>   <dbl>   <dbl>   <dbl>   <dbl>
 1 ANCOL           0.485   0.616   0.721   0.750   0.769   0.789   0.806   0.808
 2 ANGKE           0.528   0.646   0.742   0.777   0.796   0.809   0.817   0.819
 3 BALE KAMBANG    0.370   0.570   0.700   0.739   0.766   0.782   0.795   0.797
 4 BALI MESTER     0.470   0.620   0.742   0.782   0.803   0.817   0.828   0.831
 5 BAMBU APUS      0.476   0.642   0.762   0.809   0.825   0.834   0.845   0.847
 6 BANGKA          0.516   0.613   0.732   0.780   0.798   0.807   0.815   0.817
 7 BARU            0.579   0.676   0.795   0.829   0.842   0.850   0.858   0.860
 8 BATU AMPAR      0.398   0.584   0.706   0.745   0.771   0.788   0.801   0.804
 9 BENDUNGAN HI…   0.536   0.626   0.756   0.791   0.805   0.814   0.823   0.825
10 BIDARA CINA     0.406   0.576   0.710   0.752   0.770   0.782   0.792   0.795
# … with 251 more rows, 4 more variables: `2022-03-31` <dbl>,
#   `2022-04-30` <dbl>, `2022-05-31` <dbl>, `2022-06-30` <dbl>, and abbreviated
#   variable names ¹​`2021-07-31`, ²​`2021-08-31`, ³​`2021-09-30`, ⁴​`2021-10-31`,
#   ⁵​`2021-11-30`, ⁶​`2021-12-31`, ⁷​`2022-01-31`, ⁸​`2022-02-27`
…
